execute if entity @s[type=!armor_stand] run execute store result score @s PV run data get entity @s Health

execute if entity @s[type=armor_stand] run scoreboard players set @s PV 1
#permet au mort d'avoir un pv


function pkm:summon/give_pkm_xp
execute store result entity @e[type=minecraft:item,limit=1,nbt={Item:{id:"minecraft:player_head",Count:1b,tag:{aGive:1}}}] Item.tag.pv int 1 run scoreboard players get @s PV

scoreboard players set @p multiplieur2 6000
#sert a ne jamais refaire sur le meme item les fonctions

execute store result entity @e[type=minecraft:item,limit=1,nbt={Item:{id:"minecraft:player_head",Count:1b,tag:{aGive:1}}}] Item.tag.aGive int 1 run scoreboard players get @p multiplieur2
scoreboard players reset @p multiplieur2
