team join pokemon @e[team=!pokemon,tag=pkm]
effect give @e[tag=pkm] resistance 1 255 true



function pkm:health/show_health
function pkm:objet_main_select
function pkm:invoque/invoque_sauvage
function pkm:combat/lancer_combat
#execute at @a as @e[tag=capture,distance=20..] run tp ~ ~ ~
#a laisser active

execute as @e[tag=capture,tag=!combat] at @s if entity @e[type=item,nbt={Item:{id:"minecraft:lead",Count:1b}},distance=..1] run tellraw @p [{"text":" Etes vous sure de liberer ","color":"none"},{"selector":"@s"},{"text":" ? (Cliquez pour valider)","color":"none","clickEvent":{"action":"run_command","value":"/tag @a add a_libere"}}]
execute as @e[tag=capture,tag=!combat] at @s if entity @a[tag=a_libere] if entity @e[type=item,nbt={Item:{id:"minecraft:lead",Count:1b}},distance=..1] run tag @s add ancien
execute as @e[tag=capture,tag=ancien] at @s if entity @a[tag=a_libere] run kill @e[type=item,nbt={Item:{id:"minecraft:lead",Count:1b}},distance=..1]
execute as @e[tag=capture,tag=ancien] if entity @a[tag=a_libere] run tellraw @a[tag=a_libere] [{"text":" ","color":"none"},{"selector":"@s"},{"text":" est libéré!","color":"none","bold":true}]
tag @e[tag=ancien,tag=capture] remove capture
tag @a[tag=a_libere] remove a_libere



#scoreboard players add @a MonTimer 1
#execute as @a[scores={MonTimer=400..}] run scoreboard players set @a MonTimer 0
#scoreboard players add @a GrandTimer 1
#execute as @a[scores={GrandTimer=1500..}] run scoreboard players set @a GrandTimer 0


execute unless entity @a[tag=combat] run function pkm:invoque/liste_invoque
function pkm:invoque/evolution
function pkm:invoque/formes
function pkm:invoque/niveau
execute if entity @e[tag=capture,tag=!combat] run function pkm:retourner_dans_ball


execute unless entity @a[tag=combat] as @e[type=item,nbt={OnGround:1b,Item:{id:"minecraft:player_head",Count:1b}}] at @s run function pkm:abillitys/craft_objet
execute as @e[type=item,nbt={OnGround:1b,Item:{id:"minecraft:heavy_weighted_pressure_plate",Count:1b}}] at @s run function pkm:abillitys/craft_ball

