{
  "condition": "minecraft:alternative",
  "terms": [
      {
        "condition": "minecraft:entity_properties",
        "entity": "this",
        "predicate": {
          "location": {
            "biome": "minecraft:plains"
          }
        }
      }
  ]
}